<?xml version="1.0" encoding="UTF-8" ?>
<!DOCTYPE svg PUBLIC "-//W3C//DTD SVG 1.1//EN" "http://www.w3.org/Graphics/SVG/1.1/DTD/svg11.dtd">
<svg width="394pt" height="73pt" viewBox="0 0 394 73" version="1.1" xmlns="http://www.w3.org/2000/svg">
<g id="#95959595">
<path fill="#959595" opacity="0.58" d=" M 44.53 0.00 L 52.47 0.00 L 48.62 0.10 L 49.65 1.59 L 48.41 2.05 C 49.69 4.43 50.95 6.84 51.80 9.41 C 50.62 7.96 49.54 6.44 48.59 4.83 C 48.32 5.29 48.05 5.74 47.79 6.20 C 48.04 7.06 48.55 8.78 48.80 9.64 C 47.86 8.89 46.93 8.12 45.97 7.38 L 47.94 8.63 C 45.93 6.78 47.09 4.85 47.86 3.09 C 46.44 2.97 45.02 2.83 43.60 2.70 C 45.29 2.24 46.98 1.79 48.68 1.33 C 48.06 1.13 46.82 0.74 46.21 0.54 L 44.53 0.00 Z" />
</g>
<g id="#ffffffff">
<path fill="#ffffff" opacity="1.00" d=" M 52.47 0.00 L 56.12 0.00 C 56.81 1.06 57.47 2.14 58.17 3.20 C 58.73 3.13 59.85 2.99 60.41 2.92 C 60.67 5.63 61.05 8.32 61.40 11.02 C 60.53 8.51 59.75 5.96 58.71 3.51 C 58.46 5.46 58.25 7.41 58.08 9.37 C 56.13 5.97 53.33 3.08 49.65 1.59 L 48.62 0.10 L 52.47 0.00 Z" />
<path fill="#ffffff" opacity="1.00" d=" M 17.37 26.24 C 20.86 13.02 32.78 2.69 46.21 0.54 C 46.82 0.74 48.06 1.13 48.68 1.33 C 46.98 1.79 45.29 2.24 43.60 2.70 C 45.02 2.83 46.44 2.97 47.86 3.09 C 47.09 4.85 45.93 6.78 47.94 8.63 L 45.97 7.38 C 42.96 5.12 39.12 4.59 35.46 4.88 C 37.88 6.77 40.20 8.80 42.35 11.00 C 40.16 9.75 38.02 8.40 35.79 7.22 C 37.00 9.02 38.30 10.76 39.62 12.47 C 34.67 10.25 27.85 9.75 24.58 14.94 C 25.31 14.50 26.76 13.62 27.48 13.18 C 29.75 14.10 32.03 14.99 34.30 15.91 C 31.79 15.51 29.28 15.06 26.76 14.74 C 28.46 15.95 30.20 17.10 31.96 18.23 C 27.14 18.01 22.23 19.49 19.09 23.35 C 22.23 23.19 25.37 23.14 28.50 23.29 C 25.96 23.83 23.40 24.22 20.86 24.77 C 22.89 25.38 24.95 25.87 27.02 26.32 C 21.86 27.88 16.31 31.74 16.93 37.85 C 17.44 36.74 17.94 35.63 18.43 34.52 C 20.69 33.83 22.94 33.11 25.21 32.44 C 23.03 33.71 20.80 34.92 18.66 36.25 C 20.77 36.11 22.89 35.91 25.00 35.66 C 22.10 38.29 17.94 41.67 19.50 46.08 C 21.78 44.97 23.71 43.30 25.78 41.87 C 24.00 43.84 22.19 45.78 20.48 47.83 C 22.45 46.95 24.41 46.03 26.34 45.06 C 25.20 47.19 24.22 49.40 23.65 51.75 C 23.21 50.68 22.78 49.60 22.38 48.52 C 22.05 48.72 21.38 49.13 21.05 49.33 C 21.11 49.94 21.22 51.16 21.27 51.77 C 21.81 51.72 22.88 51.62 23.41 51.57 C 24.12 52.99 24.93 54.36 25.76 55.71 C 26.89 54.06 27.97 52.38 29.10 50.73 C 28.22 53.11 27.25 55.46 26.47 57.88 C 27.97 56.46 29.43 54.99 30.85 53.49 C 30.66 55.35 30.35 57.21 30.41 59.09 C 31.12 61.09 33.45 61.74 35.38 61.79 C 35.35 62.72 35.30 64.59 35.28 65.53 C 36.30 63.68 37.19 61.76 38.10 59.85 C 38.45 61.51 38.81 63.16 39.20 64.80 C 40.86 65.36 42.52 65.90 44.18 66.43 C 44.24 65.18 44.30 63.93 44.36 62.68 C 44.92 65.02 45.48 67.38 46.39 69.62 C 46.64 67.57 46.85 65.52 47.02 63.47 C 47.91 64.75 48.81 66.03 49.71 67.31 C 51.46 67.34 53.21 67.36 54.96 67.40 C 54.59 66.57 53.84 64.91 53.47 64.09 C 55.05 65.95 56.57 67.87 58.24 69.66 C 57.72 67.54 57.09 65.46 56.45 63.39 C 57.82 64.45 59.20 65.51 60.58 66.56 C 62.32 66.04 64.06 65.52 65.79 65.00 C 65.08 64.28 63.64 62.83 62.92 62.10 C 65.04 63.32 67.13 64.60 69.30 65.76 C 68.14 64.03 66.93 62.35 65.69 60.69 C 67.48 61.22 69.26 61.85 71.13 62.07 C 72.89 61.44 74.32 60.17 75.86 59.17 C 74.15 58.46 72.42 57.79 70.71 57.09 C 73.28 57.44 75.83 57.92 78.40 58.25 C 76.66 57.02 74.87 55.86 73.05 54.74 C 75.61 54.61 78.28 54.68 80.67 53.64 C 82.00 52.65 82.83 51.17 83.85 49.91 C 81.48 49.81 79.10 49.75 76.73 49.63 C 79.24 49.15 81.75 48.76 84.25 48.24 C 82.26 47.62 80.24 47.13 78.22 46.65 C 83.24 45.13 88.25 41.46 88.22 35.70 C 87.33 39.23 83.56 39.36 80.68 40.15 C 82.58 38.99 84.53 37.90 86.43 36.73 C 84.34 36.88 82.25 37.08 80.17 37.34 C 81.69 35.96 83.12 34.50 84.27 32.79 C 84.73 33.12 85.19 33.44 85.65 33.77 L 84.62 35.74 C 88.65 35.88 86.64 32.58 85.74 30.92 C 86.38 28.64 86.53 26.32 86.19 23.96 C 86.88 24.76 88.27 26.35 88.96 27.15 L 87.97 26.11 C 90.72 36.30 89.34 47.64 83.38 56.45 C 77.14 66.08 66.21 72.34 54.77 73.00 L 50.25 73.00 C 38.84 72.29 27.92 66.05 21.71 56.42 C 16.00 47.85 14.41 36.87 16.96 26.93 L 15.95 26.95 C 17.29 26.72 18.63 26.48 19.97 26.25 L 18.58 29.30 C 19.54 28.61 20.50 27.90 21.45 27.19 C 20.73 26.25 20.06 25.29 19.43 24.29 C 18.95 25.15 18.25 25.80 17.37 26.24 M 34.71 6.24 C 35.27 6.81 35.27 6.81 34.71 6.24 M 18.38 37.96 C 17.19 38.58 17.73 41.79 19.23 40.32 C 20.45 39.57 20.14 36.60 18.38 37.96 M 84.62 44.52 C 82.35 45.13 83.56 48.53 85.53 46.74 C 87.19 45.89 86.58 42.79 84.62 44.52 Z" />
<path fill="#ffffff" opacity="1.00" d=" M 58.19 2.56 C 58.04 1.56 58.49 0.46 59.74 0.77 C 63.47 1.12 66.87 2.92 70.32 4.28 C 69.69 4.59 68.43 5.20 67.80 5.51 C 68.87 6.07 69.94 6.62 71.01 7.17 C 71.37 9.06 70.87 10.98 70.69 12.85 C 70.40 11.03 70.03 9.22 69.65 7.40 C 69.22 8.30 68.79 9.20 68.39 10.11 C 68.08 10.84 67.47 12.32 67.16 13.06 C 66.17 8.62 64.07 1.33 58.19 2.56 Z" />
<path fill="#ffffff" opacity="1.00" d=" M 72.46 7.79 C 72.95 7.35 73.44 6.92 73.93 6.49 C 76.52 8.76 79.16 11.02 81.36 13.70 C 80.80 13.64 79.69 13.50 79.14 13.43 C 78.92 13.92 78.48 14.88 78.26 15.37 C 76.87 16.78 75.51 18.22 74.21 19.71 C 74.90 15.71 75.33 11.11 72.46 7.79 Z" />
<path fill="#ffffff" opacity="1.00" d=" M 47.60 13.78 C 54.74 12.15 62.62 14.15 68.01 19.12 C 74.79 25.15 77.41 35.43 74.09 43.91 C 71.18 51.86 63.52 57.83 55.08 58.63 C 46.06 59.69 36.69 54.84 32.43 46.82 C 28.71 40.13 28.82 31.58 32.57 24.93 C 35.65 19.26 41.32 15.16 47.60 13.78 M 38.74 22.77 C 32.15 28.27 30.06 38.23 33.67 45.97 C 35.84 50.64 40.36 53.59 44.86 55.73 L 41.83 52.59 C 48.10 56.15 56.11 57.12 62.58 53.53 C 72.85 48.54 76.95 33.96 70.32 24.55 C 67.20 19.96 61.39 15.78 55.65 17.82 C 49.65 17.26 43.23 18.49 38.74 22.77 Z" />
<path fill="#ffffff" opacity="1.00" d=" M 81.49 14.44 L 82.79 15.69 C 84.55 18.05 85.76 20.75 87.03 23.40 C 86.42 23.57 85.81 23.75 85.21 23.93 C 87.16 27.66 81.38 28.66 79.87 30.87 C 81.36 28.96 83.03 27.19 84.41 25.19 C 82.49 26.02 80.62 26.96 78.77 27.94 C 79.70 26.08 80.89 24.26 81.07 22.13 C 81.79 22.98 82.54 23.81 83.31 24.61 L 84.10 22.95 C 84.06 22.24 83.97 20.81 83.92 20.09 L 82.82 23.08 C 81.56 21.24 81.52 19.06 81.54 16.91 L 81.49 14.44 Z" />
<path fill="#ffffff" opacity="1.00" d=" M 45.38 24.38 C 51.15 20.72 59.63 22.74 63.25 28.51 C 67.05 34.48 65.84 43.71 59.57 47.55 C 54.01 51.11 45.73 49.58 42.23 43.86 C 39.68 39.96 39.13 34.38 42.18 30.59 C 41.73 30.31 40.82 29.75 40.37 29.47 C 41.86 27.61 43.31 25.63 45.38 24.38 M 45.30 26.25 C 45.75 26.82 45.75 26.82 45.30 26.25 M 42.93 34.26 L 42.54 34.21 C 41.36 35.46 41.16 39.16 42.99 39.60 L 42.84 41.12 C 46.25 46.73 55.06 48.15 59.50 43.01 L 60.06 42.86 L 59.92 44.36 C 65.78 39.89 63.68 29.77 57.05 27.14 C 51.77 24.21 43.14 27.95 42.93 34.26 Z" />
<path fill="#ffffff" opacity="1.00" d=" M 48.29 30.13 C 49.77 28.99 51.42 31.59 49.85 32.52 C 48.36 33.59 46.75 31.08 48.29 30.13 Z" />
<path fill="#ffffff" opacity="1.00" d=" M 11.92 53.91 C 10.06 51.66 14.01 49.11 15.44 51.55 C 17.81 54.71 19.60 58.27 22.16 61.29 C 18.47 59.31 14.47 57.37 11.92 53.91 Z" />
<path fill="#ffffff" opacity="1.00" d=" M 101.20 58.78 C 102.40 56.56 103.49 54.15 105.53 52.56 C 105.89 54.75 106.01 56.97 106.55 59.13 C 106.05 60.07 105.55 61.00 105.04 61.92 C 104.31 59.45 104.80 56.90 104.62 54.38 C 103.47 56.03 103.04 57.93 103.37 59.92 C 102.83 59.63 101.74 59.07 101.20 58.78 Z" />
<path fill="#ffffff" opacity="1.00" d=" M 111.36 52.73 C 112.78 53.44 113.61 54.80 114.51 56.05 C 115.29 54.77 116.21 53.59 117.28 52.53 C 116.89 54.20 116.06 55.69 115.26 57.18 C 116.08 58.69 116.92 60.20 117.52 61.82 C 116.12 60.94 115.24 59.54 114.41 58.16 C 113.55 59.51 112.66 60.87 111.35 61.84 C 111.91 60.19 112.76 58.67 113.59 57.14 C 112.78 55.70 112.02 54.24 111.36 52.73 Z" />
<path fill="#ffffff" opacity="1.00" d=" M 148.23 52.63 C 149.52 53.51 150.44 54.79 151.39 56.00 C 152.11 54.67 153.06 53.54 154.25 52.61 C 153.70 54.20 152.88 55.68 152.09 57.16 C 152.90 58.69 153.86 60.20 154.06 61.96 C 152.99 60.85 152.11 59.57 151.33 58.25 C 150.39 59.52 149.46 60.81 148.28 61.89 C 148.72 60.21 149.56 58.70 150.39 57.19 C 149.60 55.71 148.85 54.20 148.23 52.63 Z" />
<path fill="#ffffff" opacity="1.00" d=" M 159.33 53.14 C 161.09 53.32 164.23 52.98 164.19 55.58 C 164.47 57.89 161.85 58.01 160.30 58.54 C 160.32 59.25 160.36 60.66 160.38 61.37 C 160.10 61.31 159.53 61.19 159.24 61.13 C 159.24 58.46 159.23 55.80 159.33 53.14 M 160.50 54.61 C 160.03 55.70 160.26 56.55 161.20 57.15 C 164.14 57.64 162.55 52.64 160.50 54.61 Z" />
<path fill="#ffffff" opacity="1.00" d=" M 169.71 53.08 C 171.34 53.18 172.97 53.35 174.59 53.58 C 173.29 54.03 171.92 54.19 170.58 54.42 L 170.61 56.38 C 171.77 56.62 172.94 56.84 174.09 57.15 C 173.22 57.28 171.49 57.53 170.63 57.66 C 170.63 58.24 170.65 59.41 170.66 59.99 C 172.03 60.12 173.35 60.44 174.62 60.96 C 173.20 60.86 171.78 60.76 170.36 60.66 C 170.19 58.13 169.99 55.60 169.71 53.08 Z" />
<path fill="#ffffff" opacity="1.00" d=" M 190.77 60.64 C 191.00 57.92 190.21 54.93 191.61 52.43 C 192.12 55.49 191.95 58.60 191.87 61.68 C 191.60 61.42 191.05 60.90 190.77 60.64 Z" />
<path fill="#ffffff" opacity="1.00" d=" M 215.53 53.77 C 217.74 52.16 221.39 53.63 221.20 56.56 C 221.66 59.05 219.81 61.84 217.07 61.30 C 213.51 61.07 213.11 55.64 215.53 53.77 M 215.88 54.76 C 214.71 56.61 214.95 61.04 218.09 60.27 C 221.91 59.57 219.76 51.53 215.88 54.76 Z" />
<path fill="#ffffff" opacity="1.00" d=" M 0.00 54.29 C 5.25 54.00 9.95 56.69 14.53 58.87 C 9.63 58.52 4.50 58.40 0.00 56.19 L 0.00 54.29 Z" />
<path fill="#ffffff" opacity="1.00" d=" M 9.87 63.97 C 9.50 62.62 10.90 61.80 11.97 61.50 C 15.62 60.60 19.37 61.82 22.62 63.46 C 27.08 65.70 31.40 68.31 35.13 71.65 C 29.26 69.64 23.26 67.96 17.06 67.36 C 14.46 66.96 11.06 66.78 9.87 63.97 Z" />
</g>
<g id="#bdbdbdbd">
<path fill="#bdbdbd" opacity="0.74" d=" M 70.32 4.28 C 71.10 4.80 72.67 5.84 73.45 6.36 C 72.84 6.56 71.62 6.97 71.01 7.17 C 69.94 6.62 68.87 6.07 67.80 5.51 C 68.43 5.20 69.69 4.59 70.32 4.28 Z" />
</g>
<g id="#92929292">
<path fill="#929292" opacity="0.57" d=" M 34.71 6.24 C 35.27 6.81 35.27 6.81 34.71 6.24 Z" />
</g>
<g id="#44444444">
<path fill="#444444" opacity="0.27" d=" M 68.39 10.11 C 68.79 9.20 69.22 8.30 69.65 7.40 C 70.03 9.22 70.40 11.03 70.69 12.85 C 70.36 13.63 69.93 14.35 69.53 15.09 C 69.15 13.43 68.78 11.77 68.39 10.11 Z" />
</g>
<g id="#74b31cff">
<path fill="#74b31c" opacity="1.00" d=" M 101.96 10.77 C 103.57 11.12 105.91 10.20 106.87 11.96 C 112.14 19.45 116.59 27.51 122.19 34.77 C 122.60 26.91 122.25 19.04 122.40 11.18 C 123.64 11.04 124.88 10.91 126.13 10.79 C 126.36 20.90 126.25 31.02 126.19 41.14 C 124.75 41.19 123.32 41.24 121.89 41.28 C 116.42 33.47 111.65 25.19 105.93 17.56 C 105.51 25.38 105.92 33.22 105.68 41.05 C 104.43 41.12 103.17 41.19 101.92 41.25 C 101.87 31.09 101.80 20.93 101.96 10.77 Z" />
<path fill="#74b31c" opacity="1.00" d=" M 225.20 10.89 C 226.36 10.93 227.53 10.97 228.70 11.03 C 228.79 21.06 228.77 31.09 228.71 41.12 C 227.53 41.14 226.35 41.15 225.17 41.16 C 225.10 31.07 225.06 20.98 225.20 10.89 Z" />
<path fill="#74b31c" opacity="1.00" d=" M 243.76 10.92 C 245.06 10.99 246.37 11.07 247.69 11.15 C 247.78 20.75 247.80 30.35 247.70 39.95 C 247.87 42.04 244.94 41.02 243.76 41.42 C 243.64 31.25 243.64 21.08 243.76 10.92 Z" />
<path fill="#74b31c" opacity="1.00" d=" M 309.94 15.05 C 309.51 13.79 309.59 12.44 309.83 11.16 C 310.69 11.06 312.40 10.86 313.25 10.77 C 313.19 12.15 313.36 13.58 312.99 14.93 C 312.13 15.61 310.90 15.23 309.94 15.05 Z" />
<path fill="#74b31c" opacity="1.00" d=" M 155.09 12.58 C 155.86 12.63 157.40 12.74 158.16 12.79 C 158.98 14.74 158.54 17.00 158.79 19.08 C 160.13 19.15 161.48 19.22 162.83 19.30 C 162.88 19.99 162.97 21.38 163.01 22.07 C 161.59 22.29 160.16 22.43 158.77 22.80 C 158.51 27.20 158.53 31.64 158.71 36.05 C 158.49 38.46 161.46 37.84 162.95 38.41 C 162.94 39.11 162.92 40.51 162.90 41.22 C 160.35 41.05 156.33 41.97 155.31 38.82 C 154.57 33.45 155.30 28.01 154.85 22.62 C 153.62 22.44 152.40 22.25 151.18 22.07 C 151.22 21.40 151.31 20.06 151.35 19.39 C 152.52 19.24 153.70 19.10 154.87 18.95 C 154.96 16.83 155.02 14.70 155.09 12.58 Z" />
<path fill="#74b31c" opacity="1.00" d=" M 297.31 12.76 C 298.48 12.73 299.64 12.71 300.81 12.70 C 300.91 14.82 300.98 16.94 301.08 19.06 C 302.44 19.14 303.79 19.21 305.15 19.29 C 305.17 20.00 305.22 21.41 305.24 22.12 C 303.84 22.32 302.43 22.39 301.07 22.79 C 300.98 27.70 300.48 32.74 301.37 37.59 C 302.63 37.90 303.91 38.16 305.20 38.37 C 305.20 39.09 305.21 40.53 305.21 41.25 C 302.58 41.07 298.17 41.97 297.51 38.42 C 296.84 33.27 297.58 28.05 297.11 22.88 C 295.93 22.51 294.73 22.21 293.52 21.96 C 293.57 21.28 293.67 19.92 293.73 19.24 C 294.58 19.20 296.29 19.13 297.15 19.09 C 297.21 16.98 297.26 14.87 297.31 12.76 Z" />
<path fill="#74b31c" opacity="1.00" d=" M 364.72 12.69 C 365.59 12.69 367.33 12.69 368.21 12.69 C 368.26 14.74 368.30 16.79 368.33 18.85 C 369.78 19.06 371.24 19.27 372.70 19.48 C 372.61 20.43 372.51 21.38 372.42 22.33 C 371.08 22.38 369.74 22.43 368.41 22.49 C 368.33 27.58 368.03 32.70 368.62 37.78 C 369.94 37.95 371.27 38.13 372.61 38.31 C 372.62 39.00 372.64 40.37 372.66 41.06 C 370.10 41.13 366.22 41.98 364.99 38.99 C 364.18 33.58 364.89 28.07 364.52 22.62 C 363.30 22.45 362.08 22.29 360.87 22.13 C 360.90 21.48 360.97 20.18 361.01 19.53 C 362.17 19.29 363.33 19.01 364.48 18.69 C 364.69 16.70 364.65 14.69 364.72 12.69 Z" />
<path fill="#74b31c" opacity="1.00" d=" M 130.84 25.88 C 131.41 22.62 133.53 19.57 137.01 19.06 C 140.85 18.38 146.63 18.17 148.38 22.51 C 149.24 27.55 148.41 32.72 148.93 37.80 C 150.16 38.55 151.45 39.38 151.00 41.08 C 148.72 42.50 146.20 41.36 144.82 39.29 C 141.45 41.49 136.97 42.69 133.20 40.79 C 129.18 38.92 129.12 32.13 133.13 30.21 C 136.58 28.46 140.66 28.78 144.20 27.31 C 146.02 25.89 144.91 22.91 142.91 22.31 C 139.96 21.35 136.18 21.81 134.75 24.93 C 134.08 26.56 132.16 25.68 130.84 25.88 M 134.29 34.01 C 132.80 38.76 139.58 39.56 142.45 37.54 C 145.24 36.28 145.06 32.96 145.22 30.40 C 141.64 31.30 136.40 30.30 134.29 34.01 Z" />
<path fill="#74b31c" opacity="1.00" d=" M 166.33 19.39 C 167.46 19.34 168.60 19.31 169.73 19.28 C 170.20 24.81 169.41 30.40 170.20 35.89 C 172.23 40.58 179.90 38.66 180.64 33.98 C 181.44 29.10 180.70 24.12 181.17 19.21 C 182.30 19.28 183.44 19.37 184.58 19.46 C 184.66 26.66 184.64 33.87 184.59 41.07 C 182.68 41.55 181.18 41.08 180.62 39.03 C 176.84 42.69 168.84 43.15 166.76 37.49 C 165.70 31.54 166.42 25.41 166.33 19.39 Z" />
<path fill="#74b31c" opacity="1.00" d=" M 189.29 19.25 C 190.34 19.28 191.39 19.32 192.45 19.37 C 192.52 20.18 192.66 21.79 192.73 22.60 C 194.93 20.46 197.47 18.50 200.72 18.72 C 200.75 19.56 200.81 21.24 200.84 22.08 C 198.11 22.87 194.78 23.48 193.67 26.50 C 192.11 31.17 193.09 36.21 192.76 41.04 C 191.59 41.08 190.41 41.11 189.24 41.13 C 189.18 33.84 189.10 26.54 189.29 19.25 Z" />
<path fill="#74b31c" opacity="1.00" d=" M 202.33 26.26 C 202.10 21.06 207.38 18.23 212.00 18.68 C 214.99 18.70 219.06 19.48 219.77 22.97 C 220.39 27.83 219.88 32.76 220.13 37.65 C 221.07 38.46 222.01 39.28 222.93 40.12 C 221.01 42.61 217.56 41.86 216.14 39.28 C 212.71 41.47 208.18 42.74 204.37 40.74 C 200.51 38.82 200.42 32.25 204.27 30.28 C 207.70 28.49 211.73 28.74 215.30 27.42 C 217.41 26.01 216.14 22.65 213.91 22.21 C 211.95 21.81 209.64 21.62 207.88 22.73 C 206.31 24.44 205.13 26.81 202.33 26.26 M 205.45 34.39 C 204.49 38.93 210.91 39.41 213.67 37.58 C 216.47 36.32 216.41 32.99 216.45 30.39 C 212.85 31.36 207.17 30.23 205.45 34.39 Z" />
<path fill="#74b31c" opacity="1.00" d=" M 252.40 19.43 C 253.37 19.39 254.35 19.36 255.32 19.32 C 255.61 20.11 255.90 20.90 256.19 21.69 C 259.94 17.64 268.64 17.40 270.29 23.55 C 271.05 28.97 270.66 34.50 270.61 39.97 C 270.78 41.88 268.23 41.05 267.12 41.38 C 266.86 35.89 267.43 30.36 266.76 24.90 C 265.22 20.23 257.65 21.60 256.48 25.94 C 255.37 30.96 256.20 36.18 255.89 41.29 C 254.70 41.24 253.51 41.18 252.33 41.12 C 252.33 33.89 252.22 26.66 252.40 19.43 Z" />
<path fill="#74b31c" opacity="1.00" d=" M 277.09 20.09 C 282.17 17.27 290.99 18.43 291.77 25.36 C 290.71 25.47 289.66 25.56 288.61 25.65 C 287.25 23.81 285.68 21.71 283.09 21.95 C 280.79 21.43 276.69 23.45 278.71 26.17 C 282.29 28.91 287.52 28.04 291.01 31.01 C 293.73 33.59 292.79 38.76 289.42 40.35 C 285.58 42.28 280.62 42.37 276.86 40.19 C 274.68 38.94 273.91 36.44 274.00 34.07 C 276.55 33.89 277.86 35.91 279.35 37.57 C 282.23 39.25 288.19 39.37 288.78 35.10 C 286.25 29.88 278.38 32.57 275.09 27.99 C 273.37 25.40 274.39 21.59 277.09 20.09 Z" />
<path fill="#74b31c" opacity="1.00" d=" M 309.82 19.05 C 310.95 19.45 313.62 18.78 313.21 20.87 C 313.33 27.63 313.22 34.39 313.23 41.16 C 312.35 41.17 310.60 41.18 309.72 41.19 C 309.61 33.81 309.45 26.42 309.82 19.05 Z" />
<path fill="#74b31c" opacity="1.00" d=" M 318.25 19.21 C 320.03 19.11 321.51 19.69 322.12 21.52 C 325.84 17.81 333.84 17.42 335.91 23.03 C 337.02 29.01 336.23 35.18 336.37 41.24 C 335.50 41.25 333.74 41.26 332.87 41.27 C 332.61 35.83 333.17 30.36 332.55 24.95 C 331.07 20.22 323.42 21.59 322.26 25.94 C 321.17 30.92 322.01 36.11 321.72 41.18 C 320.53 41.20 319.34 41.22 318.15 41.23 C 318.15 33.89 318.00 26.55 318.25 19.21 Z" />
<path fill="#74b31c" opacity="1.00" d=" M 342.33 22.32 C 347.00 16.31 358.71 17.89 360.03 26.02 C 358.84 26.11 357.65 26.19 356.47 26.26 C 355.24 23.79 353.05 21.39 349.98 21.95 C 341.47 22.50 341.44 38.25 350.06 38.59 C 353.46 38.99 355.57 36.07 356.68 33.30 C 357.78 33.32 358.87 33.35 359.98 33.38 C 359.33 35.69 358.67 38.22 356.66 39.75 C 351.76 43.51 343.31 42.01 340.85 36.04 C 339.16 31.63 339.50 26.21 342.33 22.32 Z" />
<path fill="#74b31c" opacity="1.00" d=" M 378.33 20.24 C 381.61 18.25 385.91 18.32 389.41 19.70 C 391.85 20.62 392.50 23.32 393.25 25.53 C 392.20 25.52 391.16 25.51 390.12 25.49 C 388.43 23.22 385.95 21.22 382.91 22.04 C 380.71 21.97 378.15 24.81 380.55 26.45 C 384.79 29.12 391.22 28.08 394.00 33.00 L 394.00 36.78 C 391.51 42.21 384.21 42.77 379.30 40.71 C 376.71 39.77 375.92 36.94 374.83 34.71 C 375.93 34.59 377.02 34.47 378.13 34.36 C 379.78 37.64 383.39 39.44 387.01 38.39 C 389.27 38.28 391.30 35.41 389.46 33.56 C 385.86 30.88 380.68 31.71 377.22 28.75 C 374.76 26.42 375.47 21.94 378.33 20.24 Z" />
</g>
<g id="#a8a8a8a8">
<path fill="#a8a8a8" opacity="0.66" d=" M 79.14 13.43 C 79.69 13.50 80.80 13.64 81.36 13.70 C 82.03 14.11 82.30 15.06 82.79 15.69 L 81.49 14.44 L 81.54 16.91 C 81.30 16.42 80.81 15.45 80.56 14.96 C 79.43 17.64 77.83 20.07 75.96 22.29 C 76.68 19.96 77.52 17.68 78.26 15.37 C 78.48 14.88 78.92 13.92 79.14 13.43 Z" />
</g>
<g id="#9bc741f9">
<path fill="#9bc741" opacity="0.98" d=" M 42.93 34.26 C 43.14 27.95 51.77 24.21 57.05 27.14 C 63.68 29.77 65.78 39.89 59.92 44.36 L 60.06 42.86 C 60.14 39.22 61.94 35.29 60.09 31.85 C 57.68 27.77 51.99 27.29 48.00 29.05 C 43.40 32.09 42.85 40.03 47.78 43.05 C 51.28 45.80 55.73 44.04 59.50 43.01 C 55.06 48.15 46.25 46.73 42.84 41.12 L 42.99 39.60 C 43.22 37.82 43.07 36.03 42.93 34.26 Z" />
</g>
<g id="#d2de22ff">
<path fill="#d2de22" opacity="1.00" d=" M 48.00 29.05 C 51.99 27.29 57.68 27.77 60.09 31.85 C 61.94 35.29 60.14 39.22 60.06 42.86 L 59.50 43.01 C 55.73 44.04 51.28 45.80 47.78 43.05 C 42.85 40.03 43.40 32.09 48.00 29.05 M 48.29 30.13 C 46.75 31.08 48.36 33.59 49.85 32.52 C 51.42 31.59 49.77 28.99 48.29 30.13 M 52.39 29.59 C 51.01 33.70 50.56 38.46 52.71 42.39 C 53.30 38.15 53.65 33.75 52.39 29.59 Z" />
</g>
<g id="#56561fff">
<path fill="#56561f" opacity="1.00" d=" M 52.39 29.59 C 53.65 33.75 53.30 38.15 52.71 42.39 C 50.56 38.46 51.01 33.70 52.39 29.59 Z" />
</g>
<g id="#8bb262d9">
<path fill="#8bb262" opacity="0.85" d=" M 42.54 34.21 L 42.93 34.26 C 43.07 36.03 43.22 37.82 42.99 39.60 C 41.16 39.16 41.36 35.46 42.54 34.21 Z" />
</g>
<g id="#ecececec">
<path fill="#ececec" opacity="0.93" d=" M 123.79 54.07 C 124.58 53.69 125.37 53.31 126.23 53.08 C 126.37 54.80 126.35 56.52 126.37 58.24 C 126.67 58.39 127.27 58.69 127.57 58.84 C 126.87 59.75 126.21 60.68 125.54 61.61 C 125.26 60.95 124.70 59.64 124.43 58.98 C 125.53 57.28 124.67 55.63 123.79 54.07 Z" />
<path fill="#ececec" opacity="0.93" d=" M 139.15 53.14 C 140.87 53.19 142.59 53.25 144.30 53.52 C 142.98 54.02 141.55 54.20 140.18 54.47 L 140.33 56.63 C 140.97 56.61 142.24 56.56 142.88 56.53 C 142.90 56.79 142.93 57.32 142.95 57.58 C 142.23 57.58 140.80 57.58 140.09 57.57 C 139.94 59.91 141.14 60.83 143.66 60.34 L 143.51 61.23 C 142.02 61.21 140.54 61.18 139.06 61.16 C 139.04 58.48 139.03 55.81 139.15 53.14 Z" />
<path fill="#ececec" opacity="0.93" d=" M 169.48 61.27 C 169.43 58.54 169.38 55.80 169.71 53.08 C 169.99 55.60 170.19 58.13 170.36 60.66 C 171.78 60.76 173.20 60.86 174.62 60.96 C 172.91 61.17 171.19 61.21 169.48 61.27 Z" />
<path fill="#ececec" opacity="0.93" d=" M 179.40 53.10 C 182.43 52.63 186.37 54.18 185.52 57.89 C 185.48 61.18 181.80 61.35 179.35 61.31 C 179.31 58.57 179.30 55.84 179.40 53.10 M 180.62 53.85 C 180.54 56.06 180.53 58.27 180.59 60.48 C 181.94 59.94 184.32 60.11 184.21 58.02 C 184.95 55.48 182.78 54.21 180.62 53.85 Z" />
<path fill="#ececec" opacity="0.93" d=" M 196.17 53.32 C 198.60 53.11 201.05 53.12 203.47 53.42 C 202.43 53.86 201.37 54.26 200.30 54.62 C 200.33 56.63 200.35 58.64 200.38 60.66 C 200.10 60.89 199.52 61.36 199.23 61.59 C 199.19 59.27 199.18 56.96 199.17 54.64 C 198.16 54.23 197.16 53.79 196.17 53.32 Z" />
<path fill="#ececec" opacity="0.93" d=" M 207.63 61.40 C 207.92 58.49 206.69 55.09 208.52 52.54 C 208.91 55.38 208.82 58.26 208.82 61.13 C 208.52 61.20 207.93 61.33 207.63 61.40 Z" />
<path fill="#ececec" opacity="0.93" d=" M 226.63 53.34 C 229.54 52.77 229.72 57.62 231.46 59.16 C 231.46 57.21 231.46 55.27 231.46 53.32 C 231.76 53.30 232.36 53.25 232.67 53.23 C 232.68 55.93 232.69 58.64 232.62 61.34 C 232.25 61.28 231.49 61.15 231.11 61.08 C 230.06 59.18 229.01 57.29 227.85 55.46 C 227.77 57.34 227.73 59.22 227.71 61.10 C 227.43 61.18 226.85 61.32 226.56 61.39 C 226.53 58.71 226.41 56.02 226.63 53.34 Z" />
<path fill="#ececec" opacity="0.93" d=" M 238.08 54.04 C 239.50 52.65 241.41 53.13 242.88 54.15 C 241.41 54.31 239.92 54.45 238.49 54.78 C 239.86 56.02 241.51 56.95 242.76 58.33 C 242.61 59.28 242.42 60.23 242.19 61.18 C 240.44 61.30 238.64 61.41 237.19 60.23 C 238.89 60.28 240.53 59.97 242.09 59.31 C 240.62 57.68 237.00 56.87 238.08 54.04 Z" />
<path fill="#ececec" opacity="0.93" d=" M 121.80 59.42 C 121.28 58.20 122.56 55.56 123.82 55.64 C 123.95 56.86 123.77 58.05 123.30 59.21 C 122.93 59.26 122.18 59.36 121.80 59.42 Z" />
</g>
</svg>
