<?xml version="1.0" encoding="UTF-8" ?>
<!DOCTYPE svg PUBLIC "-//W3C//DTD SVG 1.1//EN" "http://www.w3.org/Graphics/SVG/1.1/DTD/svg11.dtd">
<svg width="30px" height="28pt" viewBox="0 0 36 28" version="1.1" xmlns="http://www.w3.org/2000/svg">
<g id="#072d34dd">
<path fill="#072d34" opacity="0.87" d=" M 0.00 1.59 C 5.41 -0.55 11.34 0.51 17.00 0.32 C 23.32 0.58 29.87 -0.58 36.00 1.45 L 36.00 26.34 C 34.71 26.03 34.11 26.59 34.22 28.00 L 1.66 28.00 C 1.97 26.59 1.41 26.04 0.00 26.35 L 0.00 1.59 M 2.25 2.82 C 5.89 7.12 10.07 10.93 14.04 14.93 C 15.66 16.95 18.90 17.96 20.89 15.85 C 25.31 11.67 29.70 7.41 33.68 2.80 C 28.48 2.11 23.22 2.54 18.00 2.45 C 12.75 2.53 7.47 2.12 2.25 2.82 M 2.26 6.62 C 2.12 11.55 2.11 16.49 2.26 21.42 C 5.10 19.25 7.59 16.67 9.96 14.01 C 7.55 11.39 5.07 8.82 2.26 6.62 M 25.98 14.01 C 28.49 16.74 31.09 19.39 33.79 21.93 C 33.77 16.82 33.86 11.70 33.71 6.59 C 30.87 8.78 28.38 11.37 25.98 14.01 M 11.25 15.95 C 8.05 19.03 4.80 22.09 1.96 25.52 C 12.64 25.69 23.33 25.69 34.01 25.51 C 31.14 22.12 27.89 19.06 24.72 15.95 C 22.35 17.37 20.04 19.66 17.06 19.27 C 14.87 18.70 13.13 17.14 11.25 15.95 Z" />
</g>
<g id="#010a0c34">
<path fill="#010a0c" opacity="0.20" d=" M 0.00 26.35 C 1.41 26.04 1.97 26.59 1.66 28.00 L 0.00 28.00 L 0.00 26.35 Z" />
</g>
<g id="#020d1044">
<path fill="#020d10" opacity="0.27" d=" M 34.22 28.00 C 34.11 26.59 34.71 26.03 36.00 26.34 L 36.00 28.00 L 34.22 28.00 Z" />
</g>
</svg>
